Ch9-Visualization-practice
…
Hans Rosling conveyed actual data-based trends in a dramatic way of his own, using effective data visualization. This section is based on two talks that exemplify this approach to education: [New Insights on Poverty]31 and The Best Stats Youve Ever Seen32. Specifically, in this section, we use data to attempt to answer the following two questions:

Is it a fair characterization of todays world to say it is divided into western rich nations and the developing world in Africa, Asia, and Latin America?

Has income inequality across countries worsened during the last 40 years?

To answer these questions, we will be using the gapminder dataset provided in dslabs. This dataset was created using a number of spreadsheets available from the Gapminder Foundation. You can access the table like this:

library(tidyverse)
library(dslabs)
data(gapminder)
gapminder %>% as_tibble()

#> # A tibble: 10,545 x 9
#>   country     year infant_mortality life_expectancy fertility population
#>   <fct>      <int>            <dbl>           <dbl>     <dbl>      <dbl>
#> 1 Albania     1960            115.             62.9      6.19    1636054
#> 2 Algeria     1960            148.             47.5      7.65   11124892
#> 3 Angola      1960            208              36.0      7.32    5270844
#> 4 Antigua a  1960             NA              63.0      4.43      54681
#> 5 Argentina   1960             59.9            65.4      3.11   20619075
#> #  with 10,540 more rows, and 3 more variables: gdp <dbl>,
#> #   continent <fct>, region <fct>
…
